// Jest Snapshot v1, https://goo.gl/fbAQLP

exports[`Pruebas en homeScreen should de renderizar correctamente 1`] = `
<div>
  <h1>
    HomeScreen
  </h1>
  <hr />
  <pre>
    {
    "name": "Angel",
    "email": "itzangel"
}
  </pre>
</div>
`;
